example/src/main/resources/ezio/trace.vcd
$comment
VCD file generated by CreateVCD tool
$end

$date 01-Nov-2018 18:37:58 $end

$version Simulink verification $end

$timescale 1 s $ end

$scope module Model $end

$scope module Inputs $end
$var real 2 !A X $end
$upscope $end
$scope module Outputs $end
$upscope $end

$enddefinitions $end

#0
R0 !A
#1
R0 !A
#2
R0 !A
#3
R0 !A
#4
R0 !A
#5
R0 !A
#6
R0 !A
#7
R0 !A
#8
R0 !A
#9
R0 !A
#10
R0 !A
#11
R0 !A
#12
R0 !A
#13
R0 !A
#14
R0 !A
#15
R0 !A
#16
R0 !A
#17
R0 !A
#18
R0 !A
#19
R0 !A
#20
R0 !A
#21
R0 !A
#22
R0 !A
#23
R0 !A
#24
R0 !A
#25
R0 !A
#26
R0 !A
#27
R0 !A
#28
R0 !A
#29
R0 !A
#30
R1 !A
#31
R1 !A
#32
R1 !A
#33
R1 !A
#34
R1 !A
#35
R3 !A
#36
R3 !A
#37
R2 !A
#38
R1 !A
#39
R1 !A
#40
R1 !A
#41
R1 !A
#42
R2 !A
#43
R3 !A
#44
R4 !A
#45
R9 !A
#46
R12 !A
#47
R15 !A
#48
R18 !A
#49
R21 !A
#50
R55 !A
#51
R59 !A
#52
R59 !A
#53
R56 !A
#54
R51 !A
#55
R47 !A
#56
R37 !A
#57
R28 !A
#58
R19 !A
#59
R12 !A
#60
R5 !A
#61
R0 !A
#62
R-5 !A
#63
R-8 !A
#64
R-10 !A
#65
R-10 !A
#66
R-10 !A
#67
R-11 !A
#68
R-8 !A
#69
R-8 !A
#70
R-7 !A
#71
R-6 !A
#72
R-6 !A
#73
R-6 !A
#74
R-5 !A
#75
R-5 !A
#76
R-7 !A
#77
R-6 !A
#78
R-6 !A
#79
R-6 !A
#80
R-6 !A
#81
R-6 !A
#82
R-9 !A
#83
R-9 !A
#84
R-9 !A
#85
R-9 !A
#86
R-8 !A
#87
R-8 !A
#88
R-17 !A
#89
R-16 !A
#90
R-15 !A
#91
R-14 !A
#92
R-13 !A
#93
R-21 !A
#94
R-19 !A
#95
R-18 !A
#96
R-16 !A
#97
R-29 !A
#98
R-24 !A
#99
R-20 !A
#100
R-17 !A
#101
R-14 !A
#102
R-22 !A
#103
R-15 !A
#104
R-11 !A
#105
R-7 !A
#106
R-2 !A
#107
R0 !A
#108
R0 !A
#109
R0 !A
#110
R0 !A
#111
R0 !A
#112
R0 !A
#113
R0 !A
#114
R0 !A
#115
R0 !A
#116
R0 !A
#117
R0 !A
#118
R0 !A
#119
R0 !A
#120
R0 !A
#121
R0 !A
#122
R0 !A
#123
R0 !A
#124
R0 !A
#125
R0 !A
#126
R0 !A
#127
R0 !A
#128
R0 !A
#129
R0 !A
#130
R0 !A
#131
R0 !A
#132
R0 !A
#133
R0 !A
#134
R0 !A
#135
R0 !A
#136
R0 !A
#137
R0 !A
#138
R0 !A
#139
R0 !A
#140
R0 !A
#141
R0 !A
#142
R0 !A
#143
R0 !A
#144
R0 !A
#145
R0 !A
#146
R0 !A
#147
R0 !A
#148
R0 !A
#149
R0 !A
#150
R0 !A
#151
R0 !A
#152
R0 !A
#153
R0 !A
#154
R0 !A
#155
R0 !A
#156
R0 !A
#157
R0 !A
#158
R0 !A
#159
R0 !A
#160
R0 !A
#161
R0 !A
#162
R0 !A
#163
R0 !A
#164
R0 !A
#165
R0 !A
#166
R0 !A
#167
R0 !A
#168
R0 !A
#169
R0 !A
#170
R0 !A
#171
R0 !A
#172
R0 !A
#173
R0 !A
#174
R0 !A
#175
R0 !A
#176
R0 !A
#177
R0 !A
#178
R0 !A
#179
R0 !A
#180
R0 !A
#181
R0 !A
#182
R0 !A
#183
R0 !A
#184
R0 !A
#185
R0 !A
#186
R0 !A
#187
R0 !A
#188
R0 !A
#189
R0 !A
#190
R0 !A
#191
R0 !A
#192
R0 !A
#193
R0 !A
#194
R0 !A
#195
R0 !A
#196
R0 !A
#197
R0 !A
#198
R0 !A
#199
R0 !A
#200
R0 !A
#201
R0 !A
#202
R0 !A
#203
R0 !A
#204
R0 !A
#205
R0 !A
#206
R0 !A
#207
R0 !A
#208
R0 !A
#209
R0 !A
#210
R0 !A
#211
R0 !A
#212
R0 !A
#213
R0 !A
#214
R0 !A
#215
R0 !A
#216
R0 !A
#217
R0 !A
#218
R0 !A
#219
R0 !A
#220
R0 !A
#221
R0 !A
#222
R0 !A
#223
R0 !A
#224
R0 !A
#225
R0 !A
#226
R0 !A
#227
R0 !A
#228
R0 !A
#229
R0 !A
#230
R0 !A
#231
R0 !A
#232
R0 !A
#233
R0 !A
#234
R0 !A
#235
R0 !A
#236
R0 !A
#237
R0 !A
#238
R0 !A
#239
R0 !A
#240
R0 !A
#241
R0 !A
#242
R0 !A
#243
R0 !A
#244
R0 !A
#245
R0 !A
#246
R0 !A
#247
R0 !A
#248
R0 !A
#249
R0 !A
#250
R0 !A
#251
R0 !A
#252
R0 !A
#253
R0 !A
#254
R0 !A
#255
R0 !A
#256
R0 !A
#257
R0 !A
#258
R0 !A
#259
R0 !A
#260
R0 !A
#261
R0 !A
#262
R0 !A
#263
R0 !A
#264
R0 !A
#265
R0 !A
#266
R0 !A
#267
R0 !A
#268
R0 !A
#269
R0 !A
#270
R0 !A
#271
R0 !A
#272
R0 !A
#273
R0 !A
#274
R0 !A
#275
R0 !A
#276
R0 !A
#277
R0 !A
#278
R0 !A
#279
R0 !A
#280
R0 !A
#281
R0 !A
#282
R0 !A
#283
R0 !A
#284
R0 !A
#285
R0 !A
#286
R0 !A
#287
R0 !A
#288
R0 !A
#289
R0 !A
#290
R0 !A
#291
R0 !A
#292
R0 !A
#293
R0 !A
#294
R0 !A
#295
R0 !A
#296
R0 !A
#297
R0 !A
#298
R0 !A
#299
R0 !A
#300
R0 !A
#301
R0 !A
#302
R0 !A
#303
R0 !A
#304
R0 !A
#305
R0 !A
#306
R0 !A
#307
R0 !A
#308
R0 !A
#309
R0 !A
#310
R0 !A
#311
R0 !A
#312
R0 !A
#313
R0 !A
#314
R0 !A
#315
R0 !A
#316
R0 !A
#317
R0 !A
#318
R0 !A
#319
R0 !A
#320
R0 !A
#321
R0 !A
#322
R0 !A
#323
R0 !A
#324
R0 !A
#325
R0 !A
#326
R0 !A
#327
R0 !A
#328
R0 !A
#329
R0 !A
#330
R0 !A
#331
R0 !A
#332
R0 !A
#333
R0 !A
#334
R0 !A
#335
R0 !A
#336
R0 !A
#337
R0 !A
#338
R0 !A
#339
R0 !A
#340
R0 !A
#341
R0 !A
#342
R0 !A
#343
R0 !A
#344
R0 !A
#345
R0 !A
#346
R0 !A
#347
R0 !A
#348
R0 !A
#349
R0 !A
#350
R0 !A
#351
R0 !A
#352
R0 !A
#353
R0 !A
#354
R0 !A
#355
R0 !A
#356
R0 !A
#357
R0 !A
#358
R0 !A
#359
R0 !A
#360
R0 !A
#361
R0 !A
#362
R0 !A
#363
R0 !A
#364
R0 !A
#365
R0 !A
#366
R0 !A
#367
R0 !A
#368
R0 !A
#369
R0 !A
#370
R0 !A
#371
R0 !A
#372
R0 !A
#373
R0 !A
#374
R0 !A
#375
R0 !A
#376
R0 !A
#377
R0 !A
#378
R0 !A
#379
R-1 !A
#380
R0 !A
#381
R0 !A
#382
R0 !A
#383
R0 !A
#384
R0 !A
#385
R0 !A
#386
R0 !A
#387
R0 !A
#388
R0 !A
#389
R0 !A
#390
R0 !A
#391
R0 !A
#392
R0 !A
#393
R0 !A
#394
R0 !A
#395
R0 !A
#396
R0 !A
#397
R0 !A
#398
R0 !A
#399
R0 !A
#400
R0 !A
#401
R0 !A
#402
R0 !A
#403
R0 !A
#404
R0 !A
#405
R0 !A
#406
R0 !A
#407
R0 !A
#408
R0 !A
#409
R0 !A
#410
R0 !A
#411
R0 !A
#412
R0 !A
#413
R0 !A
#414
R0 !A
#415
R0 !A
#416
R0 !A
#417
R0 !A
#418
R0 !A
#419
R0 !A
#420
R0 !A
#421
R0 !A
#422
R0 !A
#423
R0 !A
#424
R0 !A
#425
R0 !A
#426
R0 !A
#427
R0 !A
#428
R0 !A
#429
R0 !A
#430
R0 !A
#431
R0 !A
#432
R0 !A
#433
R0 !A
#434
R0 !A
#435
R0 !A
#436
R0 !A
#437
R0 !A
#438
R0 !A
#439
R0 !A
#440
R0 !A
#441
R0 !A
#442
R0 !A
#443
R0 !A
#444
R0 !A
#445
R0 !A
#446
R0 !A
#447
R0 !A
#448
R0 !A
#449
R0 !A
#450
R0 !A
#451
R0 !A
#452
R0 !A
#453
R0 !A
#454
R0 !A
#455
R0 !A
#456
R0 !A
#457
R0 !A
#458
R0 !A
#459
R0 !A
#460
R0 !A
#461
R0 !A
#462
R0 !A
#463
R0 !A
#464
R0 !A
#465
R0 !A
#466
R0 !A
#467
R0 !A
#468
R0 !A
#469
R0 !A
#470
R0 !A
#471
R0 !A
#472
R0 !A
#473
R0 !A
#474
R0 !A
#475
R0 !A
#476
R0 !A
#477
R0 !A
#478
R0 !A
#479
R0 !A
#480
R-1 !A
#481
R-1 !A
#482
R-1 !A
#483
R-1 !A
#484
R-1 !A
#485
R-1 !A
#486
R-1 !A
#487
R-1 !A
#488
R0 !A
#489
R0 !A
#490
R0 !A
#491
R0 !A
#492
R0 !A
#493
R0 !A
#494
R0 !A
#495
R0 !A
#496
R0 !A
#497
R0 !A
#498
R0 !A
#499
R0 !A
#500
R0 !A
#501
R0 !A
#502
R0 !A
#503
R0 !A
#504
R0 !A
#505
R0 !A
#506
R0 !A
#507
R0 !A
#508
R0 !A
#509
R0 !A
#510
R0 !A
#511
R0 !A
#512
R0 !A
#513
R0 !A
#514
R0 !A
#515
R0 !A
#516
R0 !A
#517
R0 !A
#518
R0 !A
#519
R0 !A
#520
R0 !A
#521
R0 !A
#522
R0 !A
#523
R0 !A
#524
R0 !A
#525
R0 !A
#526
R0 !A
#527
R0 !A
#528
R1 !A
#529
R3 !A
#530
R5 !A
#531
R7 !A
#532
R12 !A
#533
R13 !A
#534
R12 !A
#535
R11 !A
#536
R9 !A
#537
R7 !A
#538
R6 !A
#539
R3 !A
#540
R1 !A
#541
R0 !A
#542
R-1 !A
#543
R-1 !A
#544
R-2 !A
#545
R-1 !A
#546
R0 !A
#547
R0 !A
#548
R0 !A
#549
R0 !A
#550
R0 !A
#551
R0 !A
#552
R0 !A
#553
R0 !A
#554
R0 !A
#555
R0 !A
#556
R0 !A
#557
R0 !A
#558
R0 !A
#559
R0 !A
#560
R0 !A
#561
R0 !A
#562
R0 !A
#563
R0 !A
#564
R0 !A
#565
R0 !A
#566
R0 !A
#567
R0 !A
#568
R0 !A
#569
R0 !A
#570
R0 !A
#571
R0 !A
#572
R0 !A
#573
R0 !A
#574
R0 !A
#575
R0 !A
#576
R0 !A
#577
R0 !A
#578
R0 !A
#579
R0 !A
#580
R0 !A
#581
R0 !A
#582
R0 !A
#583
R0 !A
#584
R0 !A
#585
R0 !A
#586
R0 !A
#587
R0 !A
#588
R0 !A
#589
R0 !A
#590
R0 !A
#591
R0 !A
#592
R0 !A
#593
R0 !A
#594
R0 !A
#595
R0 !A
#596
R0 !A
#597
R0 !A
#598
R0 !A
#599
R0 !A
#600
R0 !A
#601
R0 !A
#602
R0 !A
#603
R0 !A
#604
R0 !A
#605
R0 !A
#606
R0 !A
#607
R0 !A
#608
R0 !A
#609
R0 !A
#610
R0 !A
#611
R0 !A
#612
R0 !A
#613
R0 !A
#614
R0 !A
#615
R0 !A
#616
R0 !A
#617
R0 !A
#618
R0 !A
#619
R0 !A
#620
R0 !A
#621
R0 !A
#622
R0 !A
#623
R0 !A
#624
R0 !A
#625
R0 !A
#626
R0 !A
#627
R0 !A
#628
R0 !A
#629
R0 !A
#630
R0 !A
#631
R0 !A
#632
R0 !A
#633
R0 !A
#634
R0 !A
#635
R0 !A
#636
R0 !A
#637
R0 !A
#638
R0 !A
#639
R0 !A
#640
R0 !A
#641
R0 !A
#642
R0 !A
#643
R0 !A
#644
R0 !A
#645
R0 !A
#646
R0 !A
#647
R0 !A
#648
R0 !A
#649
R0 !A
#650
R0 !A
#651
R0 !A
#652
R0 !A
#653
R0 !A
#654
R0 !A
#655
R0 !A
#656
R0 !A
#657
R0 !A
#658
R0 !A
#659
R0 !A
#660
R0 !A
#661
R0 !A
#662
R0 !A
#663
R0 !A
#664
R0 !A
#665
R0 !A
#666
R0 !A
#667
R0 !A
#668
R0 !A
#669
R0 !A
#670
R0 !A
#671
R0 !A
#672
R0 !A
#673
R0 !A
#674
R0 !A
#675
R0 !A
#676
R0 !A
#677
R0 !A
#678
R0 !A
#679
R0 !A
#680
R0 !A
#681
R0 !A
#682
R0 !A
#683
R0 !A
#684
R0 !A
#685
R0 !A
#686
R0 !A
#687
R0 !A
#688
R0 !A
#689
R0 !A
#690
R0 !A
#691
R0 !A
#692
R0 !A
#693
R0 !A
#694
R0 !A
#695
R0 !A
#696
R0 !A
#697
R0 !A
#698
R0 !A
#699
R0 !A
#700
R0 !A
#701
R0 !A
#702
R0 !A
#703
R0 !A
#704
R0 !A
#705
R0 !A
#706
R0 !A
#707
R0 !A
#708
R0 !A
#709
R0 !A
#710
R0 !A
#711
R0 !A
#712
R0 !A
#713
R0 !A
#714
R0 !A
#715
R0 !A
#716
R0 !A
#717
R0 !A
#718
R0 !A
#719
R0 !A
#720
R0 !A
#721
R0 !A
#722
R0 !A
#723
R0 !A
#724
R0 !A
#725
R0 !A
#726
R0 !A
#727
R0 !A
#728
R0 !A
#729
R0 !A
#730
R0 !A
#731
R0 !A
#732
R0 !A
#733
R0 !A
#734
R0 !A
#735
R0 !A
#736
R0 !A
#737
R0 !A
#738
R0 !A
#739
R0 !A
#740
R0 !A
#741
R0 !A
#742
R0 !A
#743
R0 !A
#744
R0 !A
#745
R0 !A
#746
R0 !A
#747
R0 !A
#748
R0 !A
#749
R0 !A
#750
R0 !A
#751
R0 !A
#752
R0 !A
#753
R0 !A
#754
R0 !A
#755
R0 !A
#756
R0 !A
#757
R0 !A
#758
R0 !A
#759
R0 !A
#760
R0 !A
#761
R0 !A
#762
R0 !A
#763
R0 !A
#764
R0 !A
#765
R0 !A
#766
R0 !A
#767
R0 !A
#768
R0 !A
#769
R0 !A
#770
R0 !A
#771
R0 !A
#772
R-1 !A
#773
R-1 !A
#774
R-1 !A
#775
R-1 !A
#776
R-1 !A
#777
R-2 !A
#778
R0 !A
#779
R0 !A
#780
R0 !A
#781
R0 !A
#782
R0 !A
#783
R0 !A
#784
R0 !A
#785
R0 !A
#786
R0 !A
#787
R0 !A
#788
R0 !A
#789
R0 !A
#790
R0 !A
#791
R0 !A
#792
R0 !A
#793
R0 !A
#794
R0 !A
#795
R0 !A
#796
R0 !A
#797
R0 !A
#798
R0 !A
#799
R0 !A
#800
R0 !A
#801
R0 !A
#802
R0 !A
#803
R0 !A
#804
R0 !A
#805
R0 !A
#806
R0 !A
#807
R0 !A
#808
R0 !A
#809
R0 !A
#810
R0 !A
#811
R0 !A
#812
R0 !A
#813
R0 !A
#814
R0 !A
#815
R0 !A
#816
R0 !A
#817
R0 !A
#818
R0 !A
#819
R0 !A
#820
R0 !A
#821
R0 !A
#822
R0 !A
#823
R0 !A
#824
R0 !A
#825
R0 !A
#826
R0 !A
#827
R0 !A
#828
R0 !A
#829
R0 !A
#830
R0 !A
#831
R0 !A
#832
R0 !A
#833
R0 !A
#834
R0 !A
#835
R1 !A
#836
R1 !A
#837
R1 !A
#838
R1 !A
#839
R0 !A
#840
R1 !A
#841
R0 !A
#842
R0 !A
#843
R0 !A
#844
R0 !A
#845
R0 !A
#846
R0 !A
#847
R0 !A
#848
R0 !A
#849
R0 !A
#850
R0 !A
#851
R1 !A
#852
R0 !A
#853
R0 !A
#854
R0 !A
#855
R0 !A
#856
R0 !A
#857
R0 !A
#858
R0 !A
#859
R0 !A
#860
R0 !A
#861
R0 !A
#862
R0 !A
#863
R0 !A
#864
R0 !A
#865
R0 !A
#866
R0 !A
#867
R-1 !A
#868
R0 !A
#869
R0 !A
#870
R0 !A
#871
R0 !A
#872
R0 !A
#873
R0 !A
#874
R0 !A
#875
R0 !A
#876
R0 !A
#877
R0 !A
#878
R-1 !A
#879
R-1 !A
#880
R0 !A
#881
R0 !A
#882
R0 !A
#883
R0 !A
#884
R0 !A
#885
R0 !A
#886
R0 !A
#887
R0 !A
#888
R0 !A
#889
R0 !A
#890
R0 !A
#891
R0 !A
#892
R0 !A
#893
R0 !A
#894
R0 !A
#895
R0 !A
#896
R0 !A
#897
R0 !A
#898
R0 !A
#899
R0 !A
#900
R0 !A
#901
R0 !A
#902
R0 !A
#903
R0 !A
#904
R0 !A
#905
R0 !A
#906
R0 !A
#907
R0 !A
#908
R0 !A
#909
R0 !A
#910
R0 !A
#911
R0 !A
#912
R0 !A
#913
R0 !A
#914
R0 !A
#915
R1 !A
#916
R1 !A
#917
R1 !A
#918
R1 !A
#919
R0 !A
#920
R3 !A
#921
R1 !A
#922
R4 !A
#923
R9 !A
#924
R14 !A
#925
R24 !A
#926
R28 !A
#927
R28 !A
#928
R27 !A
#929
R25 !A
#930
R22 !A
#931
R28 !A
#932
R18 !A
#933
R9 !A
#934
R3 !A
#935
R0 !A
#936
R-2 !A
#937
R-4 !A
#938
R-5 !A
#939
R-5 !A
#940
R-5 !A
#941
R-5 !A
#942
R-4 !A
#943
R-6 !A
#944
R-5 !A
#945
R-4 !A
#946
R-4 !A
#947
R-4 !A
#948
R-4 !A
#949
R-4 !A
#950
R-4 !A
#951
R-4 !A
#952
R-4 !A
#953
R-4 !A
#954
R-4 !A
#955
R-4 !A
#956
R-4 !A
#957
R-4 !A
#958
R-5 !A
#959
R-5 !A
#960
R-5 !A
#961
R-5 !A
#962
R-4 !A
#963
R-4 !A
#964
R-8 !A
#965
R-7 !A
#966
R0 !A
#967
R0 !A
#968
R0 !A
#969
R0 !A
#970
R0 !A
#971
R0 !A
#972
R0 !A
#973
R0 !A
#974
R0 !A
#975
R0 !A
#976
R0 !A
#977
R0 !A
#978
R0 !A
#979
R0 !A
#980
R0 !A
#981
R0 !A
#982
R0 !A
#983
R0 !A
#984
R0 !A
#985
R0 !A
#986
R0 !A
#987
R0 !A
#988
R0 !A
#989
R0 !A
#990
R0 !A
#991
R0 !A
#992
R0 !A
#993
R0 !A
#994
R0 !A
#995
R0 !A
#996
R0 !A
#997
R0 !A
#998
R0 !A
#999
R0 !A
#1000
R0 !A
#1001
R0 !A
#1002
R0 !A
#1003
R0 !A
#1004
R0 !A
#1005
R0 !A
#1006
R0 !A
#1007
R0 !A
#1008
R0 !A
#1009
R0 !A
#1010
R0 !A
#1011
R0 !A
#1012
R0 !A
#1013
R0 !A
#1014
R0 !A
#1015
R0 !A
#1016
R0 !A
#1017
R0 !A
#1018
R0 !A
#1019
R0 !A
#1020
R0 !A
#1021
R0 !A
#1022
R0 !A
#1023
R0 !A
#1024
R0 !A
#1025
R0 !A
#1026
R0 !A
#1027
R0 !A
#1028
R0 !A
#1029
R0 !A
#1030
R0 !A
#1031
R0 !A
#1032
R0 !A
#1033
R0 !A
#1034
R0 !A
#1035
R0 !A
#1036
R0 !A
#1037
R0 !A
#1038
R0 !A
#1039
R0 !A
#1040
R0 !A
#1041
R0 !A
#1042
R0 !A
#1043
R0 !A
#1044
R0 !A
#1045
R0 !A
#1046
R0 !A
#1047
R0 !A
#1048
R0 !A
#1049
R0 !A
#1050
R0 !A
#1051
R0 !A
#1052
R0 !A
#1053
R0 !A
#1054
R0 !A
#1055
R0 !A
#1056
R0 !A
#1057
R0 !A
#1058
R0 !A
#1059
R0 !A
#1060
R0 !A
#1061
R0 !A
#1062
R0 !A
#1063
R0 !A
#1064
R0 !A
#1065
R0 !A
#1066
R0 !A
#1067
R0 !A
#1068
R1 !A
#1069
R1 !A
#1070
R0 !A
#1071
R0 !A
#1072
R0 !A
#1073
R0 !A
#1074
R0 !A
#1075
R0 !A
#1076
R0 !A
#1077
R0 !A
#1078
R0 !A
#1079
R0 !A
#1080
R0 !A
#1081
R0 !A
#1082
R0 !A
#1083
R0 !A
#1084
R0 !A
#1085
R0 !A
#1086
R0 !A
#1087
R0 !A
#1088
R0 !A
#1089
R0 !A
#1090
R0 !A
#1091
R0 !A
#1092
R0 !A
#1093
R0 !A
#1094
R0 !A
#1095
R0 !A
#1096
R0 !A
#1097
R0 !A
#1098
R0 !A
#1099
R0 !A
#1100
R0 !A
#1101
R0 !A
#1102
R0 !A
#1103
R0 !A
#1104
R0 !A
#1105
R0 !A
#1106
R0 !A
#1107
R0 !A
#1108
R0 !A
#1109
R0 !A
#1110
R0 !A
#1111
R0 !A
#1112
R0 !A
#1113
R0 !A
#1114
R0 !A
#1115
R0 !A
#1116
R0 !A
#1117
R0 !A
#1118
R0 !A
#1119
R0 !A
#1120
R0 !A
#1121
R0 !A
#1122
R0 !A
#1123
R0 !A
#1124
R0 !A
#1125
R0 !A
#1126
R0 !A
#1127
R0 !A
#1128
R0 !A
#1129
R0 !A
#1130
R0 !A
#1131
R0 !A
#1132
R0 !A
#1133
R0 !A
#1134
R0 !A
#1135
R0 !A
#1136
R0 !A
#1137
R0 !A
#1138
R0 !A
#1139
R1 !A
#1140
R2 !A
#1141
R4 !A
#1142
R5 !A
#1143
R7 !A
#1144
R6 !A
#1145
R5 !A
#1146
R4 !A
#1147
R3 !A
#1148
R2 !A
#1149
R2 !A
#1150
R0 !A
#1151
R0 !A
#1152
R0 !A
#1153
R0 !A
#1154
R0 !A
#1155
R-1 !A
#1156
R-1 !A
#1157
R-1 !A
#1158
R0 !A
#1159
R0 !A
#1160
R0 !A
#1161
R0 !A
#1162
R0 !A
#1163
R0 !A
#1164
R0 !A
#1165
R0 !A
#1166
R0 !A
#1167
R0 !A
#1168
R0 !A
#1169
R0 !A
#1170
R0 !A
#1171
R0 !A
#1172
R0 !A
#1173
R0 !A
#1174
R0 !A
#1175
R0 !A
#1176
R0 !A
#1177
R0 !A
#1178
R0 !A
#1179
R0 !A
#1180
R0 !A
#1181
R0 !A
#1182
R0 !A
#1183
R0 !A
#1184
R0 !A
#1185
R0 !A
#1186
R0 !A
#1187
R0 !A
#1188
R0 !A
#1189
R0 !A
#1190
R0 !A
#1191
R0 !A
#1192
R0 !A
#1193
R0 !A
#1194
R0 !A
#1195
R0 !A
#1196
R0 !A
#1197
R0 !A
#1198
R0 !A
#1199
R0 !A
#1200
R0 !A
#1201
R0 !A
#1202
R0 !A
#1203
R0 !A
#1204
R0 !A
#1205
R0 !A
#1206
R0 !A
#1207
R0 !A
#1208
R0 !A
#1209
R0 !A
#1210
R0 !A
#1211
R0 !A
#1212
R0 !A
#1213
R0 !A
#1214
R0 !A
#1215
R0 !A
#1216
R0 !A
#1217
R0 !A
#1218
R0 !A
#1219
R0 !A
#1220
R0 !A
#1221
R0 !A
#1222
R0 !A
#1223
R0 !A
#1224
R0 !A
#1225
R0 !A
#1226
R0 !A
#1227
R0 !A
#1228
R0 !A
#1229
R0 !A
#1230
R0 !A
#1231
R0 !A
#1232
R0 !A
#1233
R0 !A
#1234
R0 !A
#1235
R0 !A
#1236
R0 !A
#1237
R0 !A
#1238
R0 !A
#1239
R0 !A
#1240
R0 !A
#1241
R0 !A
#1242
R0 !A
#1243
R0 !A
#1244
R0 !A
#1245
R0 !A
#1246
R0 !A
#1247
R0 !A
#1248
R0 !A
#1249
R0 !A
#1250
R0 !A
#1251
R0 !A
#1252
R0 !A
#1253
R0 !A
#1254
R0 !A
#1255
R0 !A
#1256
R0 !A
#1257
R0 !A
#1258
R0 !A
#1259
R0 !A
#1260
R0 !A
#1261
R0 !A
#1262
R0 !A
#1263
R0 !A
#1264
R0 !A
#1265
R0 !A
#1266
R0 !A
#1267
R0 !A
#1268
R0 !A
#1269
R0 !A
#1270
R0 !A
#1271
R0 !A
#1272
R0 !A
#1273
R0 !A
#1274
R0 !A
#1275
R0 !A
#1276
R0 !A
#1277
R0 !A
#1278
R0 !A
#1279
R0 !A
#1280
R1 !A
#1281
R1 !A
#1282
R2 !A
#1283
R3 !A
#1284
R7 !A
#1285
R8 !A
#1286
R7 !A
#1287
R6 !A
#1288
R5 !A
#1289
R4 !A
#1290
R3 !A
#1291
R1 !A
#1292
R0 !A
#1293
R0 !A
#1294
R0 !A
#1295
R-1 !A
#1296
R-1 !A
#1297
R-1 !A
#1298
R-1 !A
#1299
R-1 !A
#1300
R-1 !A
#1301
R-1 !A
#1302
R-1 !A
#1303
R-1 !A
#1304
R0 !A
#1305
R0 !A
#1306
R0 !A
#1307
R0 !A
#1308
R0 !A
#1309
R0 !A
#1310
R-1 !A
#1311
R0 !A
#1312
R0 !A
#1313
R0 !A
#1314
R0 !A
#1315
R0 !A
#1316
R-2 !A
#1317
R-1 !A
#1318
R-1 !A
#1319
R-1 !A
#1320
R-1 !A
#1321
R-2 !A
#1322
R-2 !A
#1323
R-2 !A
#1324
R-2 !A
#1325
R-3 !A
#1326
R-2 !A
#1327
R-2 !A
#1328
R-1 !A
#1329
R0 !A
#1330
R0 !A
#1331
R0 !A
#1332
R0 !A
#1333
R0 !A
#1334
R0 !A
#1335
R0 !A
#1336
R0 !A
#1337
R0 !A
#1338
R0 !A
#1339
R0 !A
#1340
R0 !A
#1341
R0 !A
#1342
R0 !A
#1343
R0 !A
#1344
R0 !A
#1345
R0 !A
#1346
R0 !A
#1347
R0 !A
#1348
R0 !A
#1349
R0 !A
#1350
R0 !A
#1351
R0 !A
#1352
R0 !A
#1353
R0 !A
#1354
R0 !A
#1355
R0 !A
#1356
R0 !A
#1357
R0 !A
#1358
R0 !A
#1359
R0 !A
#1360
R0 !A
#1361
R0 !A
#1362
R0 !A
#1363
R0 !A
#1364
R0 !A
#1365
R0 !A
#1366
R0 !A
#1367
R0 !A
#1368
R0 !A
#1369
R0 !A
#1370
R0 !A
#1371
R0 !A
#1372
R0 !A
#1373
R0 !A
#1374
R0 !A
#1375
R0 !A
#1376
R0 !A
#1377
R0 !A
#1378
R0 !A
#1379
R0 !A
#1380
R0 !A
#1381
R0 !A
#1382
R0 !A
#1383
R0 !A
#1384
R0 !A
#1385
R0 !A
#1386
R0 !A
#1387
R0 !A
#1388
R0 !A
#1389
R0 !A
#1390
R0 !A
#1391
R0 !A
#1392
R0 !A
#1393
R0 !A
#1394
R0 !A
#1395
R0 !A
#1396
R0 !A
#1397
R0 !A
#1398
R0 !A
#1399
R0 !A
#1400
R0 !A
#1401
R0 !A
#1402
R0 !A
#1403
R0 !A
#1404
R0 !A
#1405
R0 !A
#1406
R0 !A
#1407
R0 !A
#1408
R0 !A
#1409
R0 !A
#1410
R0 !A
#1411
R0 !A
#1412
R0 !A
#1413
R0 !A
#1414
R0 !A
#1415
R0 !A
#1416
R0 !A
#1417
R0 !A
#1418
R0 !A
#1419
R0 !A
#1420
R0 !A
#1421
R0 !A
#1422
R0 !A
#1423
R0 !A
#1424
R0 !A
#1425
R0 !A
#1426
R0 !A
#1427
R0 !A
#1428
R0 !A
#1429
R0 !A
#1430
R0 !A
#1431
R0 !A
#1432
R0 !A
#1433
R0 !A
#1434
R0 !A
#1435
R0 !A
#1436
R0 !A
#1437
R0 !A
#1438
R0 !A
#1439
R0 !A
#1440
R0 !A
#1441
R0 !A
#1442
R0 !A
#1443
R0 !A
#1444
R0 !A
#1445
R0 !A
#1446
R0 !A
#1447
R0 !A
#1448
R0 !A
#1449
R0 !A
#1450
R0 !A
#1451
R0 !A
#1452
R0 !A
#1453
R0 !A
#1454
R0 !A
#1455
R0 !A
#1456
R0 !A
#1457
R0 !A
#1458
R0 !A
#1459
R0 !A
#1460
R0 !A
#1461
R0 !A
#1462
R0 !A
#1463
R0 !A
#1464
R0 !A
#1465
R0 !A
#1466
R0 !A
#1467
R0 !A
#1468
R0 !A
#1469
R0 !A
#1470
R0 !A
#1471
R0 !A
#1472
R0 !A
#1473
R0 !A
#1474
R0 !A
#1475
R0 !A
#1476
R0 !A
#1477
R0 !A
#1478
R0 !A
#1479
R0 !A
#1480
R0 !A
#1481
R0 !A
#1482
R0 !A
#1483
R0 !A
#1484
R0 !A
#1485
R0 !A
#1486
R0 !A
#1487
R0 !A
#1488
R0 !A
#1489
R0 !A
#1490
R1 !A
#1491
R1 !A
#1492
R0 !A
#1493
R1 !A
#1494
R2 !A
#1495
R8 !A
#1496
R13 !A
#1497
R17 !A
#1498
R18 !A
#1499
R18 !A
#1500
R20 !A
#1501
R17 !A
#1502
R13 !A
#1503
R10 !A
#1504
R6 !A
#1505
R4 !A
#1506
R1 !A
#1507
R0 !A
#1508
R-1 !A
#1509
R-2 !A
#1510
R-3 !A
#1511
R-3 !A
#1512
R-3 !A
#1513
R-3 !A
#1514
R-3 !A
#1515
R-2 !A
#1516
R-2 !A
#1517
R-2 !A
#1518
R-2 !A
#1519
R-2 !A
#1520
R-2 !A
#1521
R-2 !A
#1522
R-2 !A
#1523
R-2 !A
#1524
R-2 !A
#1525
R-2 !A
#1526
R-2 !A
#1527
R-2 !A
#1528
R-2 !A
#1529
R-2 !A
#1530
R-2 !A
#1531
R-2 !A
#1532
R-5 !A
#1533
R-4 !A
#1534
R-4 !A
#1535
R-4 !A
#1536
R-4 !A
#1537
R-5 !A
#1538
R-5 !A
#1539
R-5 !A
#1540
R-4 !A
#1541
R-10 !A
#1542
R-8 !A
#1543
R-4 !A
#1544
R0 !A
#1545
R0 !A
#1546
R0 !A
#1547
R0 !A
#1548
R0 !A
#1549
R0 !A
#1550
R0 !A
#1551
R0 !A
#1552
R0 !A
#1553
R0 !A
#1554
R0 !A
#1555
R0 !A
#1556
R0 !A
#1557
R0 !A
#1558
R0 !A
#1559
R0 !A
#1560
R0 !A
#1561
R0 !A
#1562
R0 !A
#1563
R0 !A
#1564
R0 !A
#1565
R0 !A
#1566
R0 !A
#1567
R0 !A
